[
    {
        "_id": "b-105",
        "_parentId": "a-10",
        "_type": "block",
        "_classes": "",
        "title": "",
        "displayTitle": "",
        "body": "",
        "_trackingId": 0
    },
    {
        "_id": "b-108",
        "_parentId": "a-10",
        "_type": "block",
        "_classes": "",
        "title": "",
        "displayTitle": "",
        "body": "",
        "_trackingId": 1
    },
    {
        "_id": "b-110",
        "_parentId": "a-10",
        "_type": "block",
        "_classes": "",
        "title": "",
        "displayTitle": "",
        "body": "",
        "_trackingId": 2
    },
    {
        "_id": "b-120",
        "_parentId": "a-10",
        "_type": "block",
        "_classes": "",
        "title": "",
        "displayTitle": "",
        "body": "",
        "_trackingId": 3
    },
    {
        "_id": "b-200",
        "_parentId": "a-20",
        "_type": "block",
        "_classes": "",
        "title": "",
        "displayTitle": "",
        "body": "",
        "_trackingId": 4
    },
    {
        "_id": "b-210",
        "_parentId": "a-20",
        "_type": "block",
        "_classes": "",
        "title": "",
        "displayTitle": "",
        "body": "",
        "_trackingId": 5
    },
    {
        "_id": "b-220",
        "_parentId": "a-20",
        "_type": "block",
        "_classes": "",
        "title": "",
        "displayTitle": "",
        "body": "",
        "_trackingId": 6
    },
    {
        "_id": "b-400",
        "_parentId": "a-40",
        "_type": "block",
        "_classes": "",
        "title": "",
        "displayTitle": "",
        "body": "",
        "_trackingId": 14
    },
    {
        "_id": "b-410",
        "_parentId": "a-40",
        "_type": "block",
        "_classes": "",
        "title": "",
        "displayTitle": "",
        "body": "",
        "_trackingId": 15
    },
    {
        "_id": "b-495",
        "_parentId": "a-40",
        "_type": "block",
        "_classes": "",
        "title": "",
        "displayTitle": "",
        "body": "",
        "_trackingId": 19
    },
    {
        "_id": "b-500",
        "_parentId": "a-50",
        "_type": "block",
        "_classes": "",
        "title": "",
        "displayTitle": "",
        "body": "",
        "_trackingId": 20
    },
    {
        "_id": "b-511",
        "_parentId": "a-50",
        "_type": "block",
        "_classes": "",
        "title": "",
        "displayTitle": "",
        "body": "",
        "_trackingId": 22
    },
    {
        "_id": "b-512",
        "_parentId": "a-50",
        "_type": "block",
        "_classes": "",
        "title": "",
        "displayTitle": "",
        "body": "",
        "_trackingId": 23
    },
    {
        "_id": "b-513",
        "_parentId": "a-50",
        "_type": "block",
        "_classes": "",
        "title": "",
        "displayTitle": "",
        "body": "",
        "_trackingId": 24
    },
    {
        "_id": "b-514",
        "_parentId": "a-50",
        "_type": "block",
        "_classes": "",
        "title": "",
        "displayTitle": "",
        "body": "",
        "_trackingId": 25
    },
    {
        "_id": "b-515",
        "_parentId": "a-50",
        "_type": "block",
        "_classes": "",
        "title": "",
        "displayTitle": "",
        "body": "",
        "_trackingId": 26
    },
    {
        "_id": "b-516",
        "_parentId": "a-50",
        "_type": "block",
        "_classes": "",
        "title": "",
        "displayTitle": "",
        "body": "",
        "_trackingId": 27
    },
    {
        "_id": "b-517",
        "_parentId": "a-50",
        "_type": "block",
        "_classes": "",
        "title": "",
        "displayTitle": "",
        "body": "",
        "_trackingId": 28
    },
    {
        "_id": "b-518",
        "_parentId": "a-50",
        "_type": "block",
        "_classes": "",
        "title": "",
        "displayTitle": "",
        "body": "",
        "_trackingId": 29
    },
    {
        "_id": "b-519",
        "_parentId": "a-50",
        "_type": "block",
        "_classes": "",
        "title": "",
        "displayTitle": "",
        "body": "",
        "_trackingId": 30
    },
    {
        "_id": "b-520",
        "_parentId": "a-50",
        "_type": "block",
        "_classes": "",
        "title": "",
        "displayTitle": "",
        "body": "",
        "_trackingId": 31
    },
    {
        "_id": "b-521",
        "_parentId": "a-50",
        "_type": "block",
        "_classes": "",
        "title": "",
        "displayTitle": "",
        "body": "",
        "_trackingId": 32
    },
    {
        "_id": "b-522",
        "_parentId": "a-50",
        "_type": "block",
        "_classes": "",
        "title": "",
        "displayTitle": "",
        "body": "",
        "_trackingId": 33
    },
    {
        "_id": "b-525",
        "_parentId": "a-50",
        "_type": "block",
        "_classes": "",
        "title": "",
        "displayTitle": "",
        "body": "",
        "_trackingId": 34
    },
    {
        "_id": "b-550",
        "_parentId": "a-60",
        "_type": "block",
        "_classes": "",
        "title": "",
        "displayTitle": "",
        "body": "",
        "_trackingId": 35
    },
    {
        "_id": "b-555",
        "_parentId": "a-60",
        "_type": "block",
        "_classes": "",
        "title": "",
        "displayTitle": "",
        "body": "",
        "_trackingId": 36
    },
    {
        "_id": "b-560",
        "_parentId": "a-60",
        "_type": "block",
        "_classes": "",
        "title": "",
        "displayTitle": "",
        "body": "",
        "_trackingId": 37
    },
    {
        "_id": "b-590",
        "_parentId": "a-60",
        "_type": "block",
        "_classes": "",
        "title": "",
        "displayTitle": "",
        "body": "",
        "_trackingId": 38
    },
    {
        "_id": "b-620",
        "_parentId": "a-70",
        "_type": "block",
        "_classes": "",
        "title": "",
        "displayTitle": "",
        "body": "",
        "_trackingId": 40
    },
    {
        "_id": "b-640",
        "_parentId": "a-70",
        "_type": "block",
        "_classes": "",
        "title": "",
        "displayTitle": "",
        "body": "",
        "_trackingId": 41
    },
    {
        "_id": "b-660",
        "_parentId": "a-70",
        "_type": "block",
        "_classes": "",
        "title": "",
        "displayTitle": "",
        "body": "",
        "_trackingId": 42
    },
    {
        "_id": "b-680",
        "_parentId": "a-70",
        "_type": "block",
        "_classes": "",
        "title": "",
        "displayTitle": "",
        "body": "",
        "_trackingId": 43
    },
    {
        "_id": "b-700",
        "_parentId": "a-70",
        "_type": "block",
        "_classes": "",
        "title": "",
        "displayTitle": "",
        "body": "",
        "_trackingId": 44
    },
    {
        "_id": "b-720",
        "_parentId": "a-70",
        "_type": "block",
        "_classes": "",
        "title": "",
        "displayTitle": "",
        "body": "",
        "_trackingId": 45
    },
    {
        "_id": "b-740",
        "_parentId": "a-70",
        "_type": "block",
        "_classes": "",
        "title": "",
        "displayTitle": "",
        "body": "",
        "_trackingId": 46
    }
]