﻿[{
    "_id": "c-100",
    "_parentId": "b-105",
    "_type": "component",
    "_component": "text",
    "_classes": "",
    "_layout": "full",
    "title": "Erişim ve Sıklık nedir?",
    "displayTitle": "Erişim ve Sıklık nedir?",
    "body": "Erişim ve sıklık, Reklam Yöneticisi, Power Editor ve Reklamlar API’si aracılığıyla Facebook ve Instagram’da reklam satın almanıza olanak tanıyan güçlü bir araçtır.&#160;Erişim ve sıklığı kullanarak medya satın almak, televizyon ve basılı medya gibi çok sayıda geleneksel medya kanalında bilinen ve etkisi kanıtlamış bir yöntemdir.&#160;Facebook ve Instagram bu oturmuş satın alma yöntemini daha da geliştirerek, reklamverenlerin insanlara aktardığı mesajların erişim ve sıklığı üzerinde yüksek bir tahmin edilebilirlikle kontrol sahibi olmasına olanak tanır.<br><br><i>Not:</i> Bir erişim ve sıklık kampanyası için gereken minimum hedef kitle büyüklüğü 200.000 kişidir. ",
    "instruction": "",
    "_pageLevelProgress": {
      "_isEnabled": true
    }
  },
  {
    "_id": "c-108",
    "_parentId": "b-108",
    "_type": "component",
    "_component": "graphic",
    "_classes": "",
    "_layout": "left",
    "title": "Kimler Kullanmalı?",
    "displayTitle": "Kimler Kullanmalı?",
    "body": "",
    "_graphic": {
      "alt": "",
      "large": "course/en/images/images/module_1_good_fit.png",
      "small": "course/en/images/images/module_1_good_fit.png",
      "attribution": ""
    },
    "instruction": "",
    "_pageLevelProgress": {
      "_isEnabled": true
    },
    "_isComplete": true
  },
  {
    "_id": "c-109",
    "_parentId": "b-108",
    "_type": "component",
    "_component": "text",
    "_classes": "",
    "_layout": "right",
    "title": "",
    "displayTitle": "",
    "body": "<br><br>Aşağıdakileri gerçekleştirmek istiyorsanız erişim ve sıklık uygun bir seçim olabilir:<br><br><li>Marka kampanyalarınızın erişimini, sıklığını ve ücretini doğru şekilde tahmin etmek.<br><li>TV kampanyalarınızın erişimini Facebook ve Instagram’a genişletmek.<br><li>Kampanyalarınızı önceden planlamak ve rezerve etmek.<br><li>İnsanlara markanızın hikayesini ve mesajınızı belirli bir sırayla aktarmak.<br><li>Tüm cihazlarda reklam yayınlamak.",
    "instruction": "",
    "_pageLevelProgress": {
      "_isEnabled": false
    }
  },
  {
    "_id": "c-110",
    "_parentId": "b-105",
    "_type": "component",
    "_component": "graphic",
    "_classes": "",
    "_layout": "left",
    "title": "",
    "displayTitle": "",
    "body": "",
    "_graphic": {
      "alt": "",
      "large": "",
      "small": "",
      "attribution": ""
    },
    "instruction": "",
    "_pageLevelProgress": {
      "_isEnabled": false
    },
    "_isComplete": true
  },
  {
    "_id": "c-120",
    "_parentId": "b-110",
    "_type": "component",
    "_component": "text",
    "_classes": "",
    "_layout": "full",
    "title": "Kurstan Beklentiler",
    "displayTitle": "",
    "body": "<ul>Bu kursu tamamlayarak:<br><br><li>Erişim ve sıklığa ilişkin temel özellikleri anlayacaksınız.</li><li>Erişim ve sıklığı kullanarak reklam satın almayı öğreneceksiniz.</li><li>Erişim ve sıklığı kullanarak kampanyanızı optimize edebileceksiniz.</li></ul>",
    "instruction": "",
    "_pageLevelProgress": {
      "_isEnabled": false
    }
  },
  {
    "_id": "c-130",
    "_parentId": "b-120",
    "_type": "component",
    "_component": "co-jump",
    "_classes": "color-test",
    "_preLinkBody": "İlk konumuzla başlayalım: ",
    "_linkBody": "Erişim ve Sıklığa ilişkin Temel Özellikler",
    "_postLinkBody": ".",
    "_link": "#/id/co-20",
    "_graphic": "adapt/css/assets/icon_nextPage.png",
    "_pageLevelProgress": {
      "_isEnabled": false
    }
  },
  {
    "_id": "c-220",
    "_parentId": "b-200",
    "_type": "component",
    "_component": "text",
    "_classes": "",
    "_layout": "left",
    "title": "",
    "displayTitle": "",
    "body": "<br><br><br>Herhangi bir medyanın etkisini ölçmenin temelinde, mesajınızın kimlere ulaştığını, kaç kişiye ulaştığını ve hedef kitlenizin mesajınızı ne sıklıkla aldığını anlamak yatar. Erişim ve sıklık, mesajınızı aktarmanın bu yönleri üzerinde kontrol sahibi olmanızı sağlayabilir.",
    "instruction": "",
    "_pageLevelProgress": {
      "_isEnabled": false
    }
  },
  {
    "_id": "c-230",
    "_parentId": "b-200",
    "_type": "component",
    "_component": "graphic",
    "_classes": "",
    "_layout": "right",
    "title": "",
    "displayTitle": "",
    "body": "",
    "_graphic": {
      "alt": "",
      "large": "course/en/images/images/module_2_core.png",
      "small": "course/en/images/images/module_2_core.png",
      "attribution": ""
    },
    "instruction": "",
    "_pageLevelProgress": {
      "_isEnabled": false
    },
    "_isComplete": true
  },
  {
    "_id": "c-240",
    "_parentId": "b-210",
    "_type": "component",
    "_component": "text",
    "_classes": "",
    "_layout": "full",
    "title": "Temel Özellikler",
    "displayTitle": "",
    "body": "Erişim ve sıklık, hedef kitleniz ve bütçenize dayalı olarak işletme hedeflerinize ulaşmak üzere, tahmin edilebilir erişim ve kontrollü sıklık konusunda planlama ve satın alma açısından etkili bir yöntem sunabilir.<br><br><b>Hedefleme ve satın alma büyüklüğünde esneklik</b><br>Açık artırma üzerinden ulaşabileceğiniz, Facebook ile Instagram’ı güçlü platformlar haline getiren ilgi alanı hedeflemesi, demografik hedefleme ve hedef kitle hedeflemesi çözümlerinin neredeyse tümünden faydalanabilirsiniz.<br><br><b>Tahmin edilebilir yayın</b><br>Bir marka reklamvereniyseniz, medyanızı büyük olasılıkla önceden planlayıp satın alırsınız. Dolayısıyla, ne kadar ücret ödeyeceğinizi ve karşılığında ne alacağınızı bilmek istersiniz. Erişim ve sıklık, medyayı kampanyanız başlamadan önce satın almanıza olanak tanır. Bu sayede, medya yayınlandığında beklentilerinizi bilir ve gelecekte diğer satın alma platformlarıyla birlikte medya planlaması yapabilirsiniz.<br><br><b>Reklamverenler için etkili ücretlendirme</b><br>Sistemimiz her hedef kitle için etkili fiyatlar belirlememize olanak tanır. Bu sayede, erişim ve sıklık satın alırken mümkün olan en iyi fiyatı alabilirsiniz.<br><br><b>Gerçek insanlara kontrollü yayın</b><br>Facebook ve Instagram gerçek insanlarla bağlantı kurduğundan, eşsiz bir doğruluk ve ölçekte destek sunabiliyoruz.",
    "instruction": "",
    "_pageLevelProgress": {
      "_isEnabled": true
    }
  },
  {
    "_id": "c-250",
    "_parentId": "b-220",
    "_type": "component",
    "_component": "co-jump",
    "_classes": "color-test",
    "_preLinkBody": "Reklamverenlerin erişim ve sıklığı kampanyalarında nasıl kullandıklarını gördüğünüze göre sıradaki konumuza geçebiliriz:",
    "_linkBody": "Erişim ve Sıklık Satın Alma Kuralları",
    "_postLinkBody": ".",
    "_link": "#/id/co-40",
    "_graphic": "adapt/css/assets/icon_nextPage.png",
    "_pageLevelProgress": {
      "_isEnabled": false
    }
  },
  {
    "_id": "c-402",
    "_parentId": "b-400",
    "_type": "component",
    "_component": "text",
    "_classes": "",
    "_layout": "left",
    "title": "Ücretlendirme",
    "displayTitle": "Ücretlendirme",
    "body": "Erişim ve sıklığı kullanarak bir kampanya oluşturduğunuzda, rezervasyonunu yaptığınız reklam envanteri alanı için sabit bir ücret ödemeyi kabul edersiniz.<br><br>Ücret daima CPM (1.000 gösterim başına ücret) cinsindendir.<br><br>Tahmini ücret, dönemsel farklılıklar ve reklam kalitesi gibi açık artırma dinamiklerine bağlı olarak günden güne değişiklik gösterebilir.",
    "_pageLevelProgress": {
      "_isEnabled": true
    }
  },
  {
    "_id": "c-405",
    "_parentId": "b-400",
    "_type": "component",
    "_component": "graphic",
    "_classes": "",
    "_layout": "right",
    "title": "",
    "displayTitle": "",
    "body": "",
    "instruction": "",
    "_pageLevelProgress": {
      "_isEnabled": false
    },
    "_graphic": {
      "alt": "alternatif metin",
      "src": "course/en/images/images/module_4.png"
    }
  },
  {
    "_id": "c-410",
    "_parentId": "b-410",
    "_type": "component",
    "_component": "text",
    "_classes": "",
    "_layout": "full",
    "title": "Yayın",
    "displayTitle": "Yayın",
    "body": "Erişim ve sıklığı kullanarak reklam planlar ve satın alırken aklınızda bulundurmanız gereken bazı kuralları aşağıda bulabilirsiniz:<br><br><ul><li>Reklam Setleri 1 ila 90 gün uzunluğunda olmalıdır ve başlangıç tarihinizden altı ay önceden rezerve edilebilir.</li><li>Reklam Seti başına minimum 200.000 kişiye erişmeniz gerekir. </li><li>Reklamları Facebook ve Instagram’da yayınlayabilirsiniz. </li><li>Sistem seçilen reklam verme amacına öncelik verirken, erişim ve sıklık hedefine ulaşılmasını sağlar.&#160;Birincil KPI’nız dönüşüm veya internet sitesi tıklamaları gibi eylem tabanlıysa, daha uygun satın alma seçenekleri için açık artırmayı göz önünde bulundurun. </li><li>Hedef değil, sıklık üst sınırı belirlersiniz. Sıklık üst sınırınızı tekrar gözden geçirmeyiz.</li><li>Reklamlar planlanan başlangıç zamanından itibaren altı saat içinde Reklam Setine yüklenmelidir.&#160;Yükleme bu süre bittikten sonra yapılırsa, Reklam Seti iptal edilir.</ul>",
    "instruction": "",
    "_pageLevelProgress": {
      "_isEnabled": true
    }
  },
  {
    "_id": "c-411",
    "_parentId": "b-410",
    "_type": "component",
    "_component": "text",
    "_classes": "",
    "_layout": "full",
    "title": "Reklam Setleri",
    "displayTitle": "Reklam Setleri",
    "body": "<ul><li>Reklam Setlerinde birden fazla reklam bulunabilir. Bir erişim ve sıklık Reklam Seti içinde birden fazla reklam varsa, seçtiğiniz reklam verme amacına dayalı olarak en iyi performans gösteren reklamlara göre yayın optimize edilir. Kötü performans gösteren bir reklam nedeniyle yayın üzerinde oluşabilecek olumsuz etkileri en aza indirmek amacıyla bir reklam setine birden fazla reklam yerleştirmek en iyi uygulamalardan biridir.</li><li>Kreatifin bir Reklam Setinde manuel olarak dönmesini tercih edebilir veya dönüş planını önceden belirlemek için reklam planlamasını kullanabilirsiniz.</li><li>Reklam Setinizdeki reklamların görülme sırasını kontrol etmek için reklam sıralamasını kullanmayı seçebilirsiniz.</li><li>Her bir Reklam Seti kendi Bütçesine, Erişimine, Sıklığına, Hedeflemesine ve Reklam Alanına sahiptir.</li></ul>",
    "instruction": "",
    "_pageLevelProgress": {
      "_isEnabled": true
    }
  },
  {
    "_id": "c-412",
    "_parentId": "b-410",
    "_type": "component",
    "_component": "text",
    "_classes": "",
    "_layout": "full",
    "title": "Hedefleme",
    "displayTitle": "Hedefleme",
    "body": "<ul><li>Kampanya başına tek bir ülkeyi hedefleyebilirsiniz. Bu nedenle, birden fazla ülkede insanlara erişmek istiyorsanız, ayrı erişim ve sıklık Reklam Setleri oluşturmanız gerekir.</li><li>Sonuçları en üst düzeye çıkarmak için çok dar bir hedef kitle oluşturmaktan kaçınmak en iyisidir.</li><li>Hedef kitleleri video ile yeniden hedeflerken hariç tutma yöntemini kullanabilirsiniz.</li><li>Erişim ve sıklık kampanyaları, aşağıdakiler hariç olmak üzere çoğu Facebook hedefleme özelliğiyle uyumludur:<ul><li>İşletim sistemine özel hedefleme yapamazsınız.</li><li>Aşağıdakiler gibi dinamik hedef kitleleri hariç tutamazsınız:</li></ul><ol><li>İnternet Sitesi Özel Hedef Kitleleri</li><li>Video İzleyen hedef kitleler</li><li>Hayranlar</li><li>Bağlantıların Arkadaşları</li></ol>",
    "instruction": "",
    "_pageLevelProgress": {
      "_isEnabled": true
    }
  },

  {
    "_id": "c-495",
    "_parentId": "b-495",
    "_type": "component",
    "_component": "co-jump",
    "_classes": "color-test",
    "_preLinkBody": "Bazı erişim ve sıklık satın alma kurallarını öğrendiğinize göre, sıradaki konumuza geçebiliriz: ",
    "_linkBody": "Erişim ve Sıklık Kullanarak Reklam Satın Alma.",
    "_postLinkBody": "",
    "_link": "#/id/co-50",
    "_graphic": "adapt/css/assets/icon_nextPage.png",
    "_pageLevelProgress": {
      "_isEnabled": false
    }
  },
  {
    "_id": "c-500",
    "_parentId": "b-500",
    "_type": "component",
    "_component": "text",
    "_classes": "",
    "_layout": "full",
    "title": "Adım adım kılavuz",
    "displayTitle": "",
    "body": "<h2>Erişim ve sıklık özelliğine erişme</h2><br>1. Reklam Yöneticisi’nin kullanıcı arayüzünde nasıl ayarlandığına bağlı olarak, Erişim ve Sıklık özelliğine aşağıdaki yollardan biri üzerinden erişebilirsiniz:<br><br> <ul><li>Reklam Yöneticisi’ndeki başlangıç ekranınızdan aşağıda gösterildiği şekilde Erişim ve Sıklık seçeneğini seçerek. Reklam verme amacınızı seçtikten sonra <b>Reklam Seti</b> sayfasına devam edin ve ardından aşağıdaki “Adım Adım” kısmında yer alan adımları izleyin. </li><br><br><img src='course/en/images/step_by_step/0-access1.png' height='100%' width='850px'> <br><br><li>İlk seçeneği göremiyorsanız, Erişim ve Sıklık satın almaya aşağıda gösterildiği şekilde Reklam Yöneticisi’nin <b>Bütçe ve Plan</b> kısmından erişebilirsiniz. Normalde yapacağınız şekilde devam ederek reklam setinizi oluşturun, Bütçe ve Plan kısmına geldiğinizde ise Açık Artırma sekmesinin yanındaki Tahmin Edilebilir Erişim ve Sıklık’ı seçin. </li></ul> <br><br><img src='course/en/images/step_by_step/0-access2.png' height='100%' width='800px'>   ",
    "instruction": "",
    "_pageLevelProgress": {
      "_isEnabled": true
    }
  },
  {
    "_id": "c-510",
    "_parentId": "b-500",
    "_type": "component",
    "_component": "text",
    "_classes": "",
    "_layout": "full",
    "title": "",
    "displayTitle": "",
    "body": "<h2>Hedef kitlenizi, planınızı ve reklam alanınızı belirleme</h2> <br>2. Reklamınızın başlangıç ve bitiş tarihlerini ve istediğiniz sıklık üst sınırı ve aralığını seçerek <b>Planınızı</b> belirleyin. Ayrıca reklamınızı günün belirli saatlerinde yayınlanacak şekilde ayarlayabilirsiniz. Planlar 1 ila 90 gün uzunluğunda olabilir. Erişim, Sıklık, Harcama ve Reklam Alanı öğelerinin yer aldığı bir reklam alanı dağılım grafiği de görebilirsiniz. Örneğimizde, Reklam Setini bir hedef kitleye her yedi günde maksimum iki gösterimle erişecek şekilde ayarladık.<br><br><img src='course/en/images/images/step_2.png' height='50%' width='900px'> ",
    "instruction": "",
    "_pageLevelProgress": {
      "_isEnabled": false
    }
  },
  {
    "_id": "c-511",
    "_parentId": "b-511",
    "_type": "component",
    "_component": "graphic",
    "_classes": "",
    "_layout": "full",
    "title": "",
    "displayTitle": "",
    "body": "3. Sonraki adımda, <b>Hedef Kitlenizi</b> konum ve demografik bilgiler gibi parametrelere odaklanarak daraltma seçeneğiniz vardır. Erişim ve sıklık satın alma türünü kullanabilmek için hedef kitleler en az 200.000 kişiden oluşmalıdır.",
    "instruction": "",
    "_graphic": {
      "src": "course/en/images/images/step_3_v2.png"
    }
  },
  {
    "_id": "c-512",
    "_parentId": "b-512",
    "_type": "component",
    "_component": "graphic",
    "_classes": "",
    "_layout": "full",
    "title": "",
    "displayTitle": "",
    "body": "4. Şimdi de reklamlarınızın görüntülenmesini istediğiniz <b>Reklam Alanları</b>’nı belirleyin. Örneğimizde, reklamlarımızı Mobil Haber Kaynağı, Instagram ve Site Haber Kaynağı’na yerleştirmeyi seçtik. Kullanılabilen tüm reklam alanlarında reklam yayınlamak, sistemimizin yayını etkili şekilde optimize etmesine olanak tanır. Bu sayede, sizin için önemli olan kişilere zamanlarını geçirdikleri yerde erişebilirsiniz.<br><br><i>Not:</i> Reklamlar Sağ Sütun ve Mobil veya Site Haber Kaynağı’nda aynı zamanda yayınlanamaz.",
    "instruction": "",
    "_graphic": {
      "src": "course/en/images/images/step_4_v2.png"
    }
  },
  {
    "_id": "c-513",
    "_parentId": "b-513",
    "_type": "component",
    "_component": "graphic",
    "_classes": "",
    "_layout": "full",
    "title": "",
    "displayTitle": "",
    "body": "5. <b>Plan</b>, <b>Hedef Kitle</b> ve <b>Reklam Alanları</b> kısımlarını belirlediğinize göre, Reklam Setinizin <b>Bütçesini</b> değiştirebilirsiniz. Belirlenen parametrelere göre ayarlamalar yaptığınızda, planlanan erişim, ortalama sıklık ve CPM güncellenir. Kontrol edilebilir faktörler üzerinde değişiklik yaparak Reklam Setinize son şeklini verin. Aşağıda <b>Bütçe</b>’nin ayarlandığını görebilirsiniz.",
    "instruction": "",
    "_graphic": {
      "src": "course/en/images/images/ch5step5.png"

    }
  },
  {
    "_id": "c-514",
    "_parentId": "b-514",
    "_type": "component",
    "_component": "graphic",
    "_classes": "",
    "_layout": "full",
    "title": "",
    "displayTitle": "",
    "body": "6. Envanter satın almadan önce ne bekleyeceğinizi bilmek amacıyla Reklam Seti için <i>tahmini</i> <b>Erişim</b>, <b>Sıklık</b>, <b>Harcama</b> ve <b>Reklam Alanı</b> dağılımının nasıl olacağını inceleyebilirsiniz. Bu verilere, tahmin grafiğinin üstünde yer alan <b>Erişim</b>, <b>Sıklık</b>, <b>Harcama</b> ve <b>Reklam Alanı</b> sekmelerini seçerek erişebilirsiniz. Aşağıda <b>Harcama</b> tahmin grafiğini seçtik. ",
    "instruction": "",
    "_graphic": {
      "src": "course/en/images/images/step_6_v2.png"
    }
  },
  {
    "_id": "c-515",
    "_parentId": "b-515",
    "_type": "component",
    "_component": "graphic",
    "_classes": "",
    "_layout": "full",
    "title": "",
    "displayTitle": "",
    "body": "7. Reklam Setinize son halini verdikten sonra, <b>Devam</b>’a tıklayarak reklamlarınızı oluşturun. Yeni reklamlar oluşturabilir veya Sayfanızdaki mevcut gönderileri kullanabilirsiniz. Reklamlarınızın seçtiğiniz reklam alanlarında nasıl görüneceğini anlamanız için size bir <b>Reklam Önizlemesi</b> sunacağız. <b>Taslağa Kaydet</b>’e tıklayarak yaptığınız değişiklikleri ve envanterinizi kaydedin.<br><br> ",
    "instruction": "",
    "_graphic": {
      "src": "course/en/images/images/ch5step7.png"
    }
  },
  {
    "_id": "c-516",
    "_parentId": "b-516",
    "_type": "component",
    "_component": "graphic",
    "_classes": "",
    "_layout": "full",
    "title": "",
    "displayTitle": "",
    "body": "8. Reklamlarınız henüz hazır değilse, Reklam Setinize son halini verdikten sonra bir önceki adımı atlayıp <b>Taslağa Kaydet</b>’e tıklayabilirsiniz. Bu işlem envanterinizi üç güne kadar sabit fiyattan (CPM) ve belirlenen parametrelerle rezerve edecektir. Değişiklik yapmanız gerekiyorsa, Reklam Setinizi düzenleyebilir ve yeni bir taslak olarak kaydedebilirsiniz.<br><br><i>Not:</i> Taslağınız üzerinde değişiklik yaparsanız, envanteriniz yayınlanacak ve ücretlendirme tahminleri güncellenecektir.",
    "instruction": "",
    "_graphic": {
      "src": "course/en/images/images/ch5step8.png"
    }
  },
  {
    "_id": "c-517",
    "_parentId": "b-517",
    "_type": "component",
    "_component": "graphic",
    "_classes": "",
    "_layout": "full",
    "title": "",
    "displayTitle": "",
    "body": "9. Reklam Seti parametrelerinden memnunsanız, kaydettikten sonra alışverişinizi tamamlamak için sağ üst köşedeki <b>Değişiklikleri Gözden Geçir</b> düğmesini seçin. Bu işlem, envanterinizin satın alımını gerçekleştirecektir.",
    "instruction": "",
    "_graphic": {
      "src": "course/en/images/images/ch5step9.png"
    }
  },
  {
    "_id": "c-518",
    "_parentId": "b-518",
    "_type": "component",
    "_component": "graphic",
    "_classes": "",
    "_layout": "full",
    "title": "",
    "displayTitle": "",
    "body": "10. Kampanya, Reklam Seti ve Reklamlarınız üzerinde yaptığınız değişiklikleri gözden geçirmeyi unutmayın. Envanterinizi rezerve etmek için <b>Uygula</b>’ya tıklayın.",
    "instruction": "",
    "_graphic": {
      "src": "course/en/images/images/ch5step10.png"
    }
  },
  {
    "_id": "c-519",
    "_parentId": "b-519",
    "_type": "component",
    "_component": "graphic",
    "_classes": "",
    "_layout": "full",
    "title": "",
    "displayTitle": "",
    "body": "11. Yaptığınız değişiklikler uygulanacak ve onaylanacaktır.",
    "instruction": "",
    "_graphic": {
      "src": "course/en/images/images/ch5step11.png"
    }
  },
  {
    "_id": "c-520",
    "_parentId": "b-520",
    "_type": "component",
    "_component": "graphic",
    "_classes": "",
    "_layout": "full",
    "title": "",
    "displayTitle": "",
    "body": "12. Henüz yapmadıysanız, Reklam Setinizin başlaması için en az bir reklam oluşturmanız gerekir. Bu işlemi, Reklam Yöneticisi veya Power Editor’ın sol üst köşesindeki <b>Reklam Oluştur</b> düğmesini seçerek yapabilirsiniz. İşlemi tamamladıktan sonra yaptığınız değişiklikleri yüklemek için <b>Değişiklikleri Gözden Geçir</b>’i seçin.",
    "instruction": "",
    "_graphic": {
      "src": "course/en/images/images/ch5step12.png"
    }
  },
  {
    "_id": "c-521",
    "_parentId": "b-521",
    "_type": "component",
    "_component": "graphic",
    "_classes": "",
    "_layout": "full",
    "title": "",
    "displayTitle": "",
    "body": "13. <b>Sıralı</b> veya <b>Planlanmış</b> yayın gibi daha gelişmiş yayın seçenekleriyle ilgileniyorsanız, Reklam Setine gidin ve istediğiniz seçeneği seçin. <b>Sıralı</b> yayın, aynı hedef kitleye birden fazla reklamı belirli bir sırayla gösterir. <b>Planlanmış</b> yayın ise reklamları Reklam Setinizde belirli tarih aralıkları süresince gösterir.",
    "instruction": "",
    "_graphic": {
      "src": "course/en/images/images/step_13.png"
    }
  },
  {
    "_id": "c-522",
    "_parentId": "b-522",
    "_type": "component",
    "_component": "graphic",
    "_classes": "",
    "_layout": "full",
    "title": "",
    "displayTitle": "",
    "body": "Yüklemek için <b>Değişiklikleri Gözden Geçir</b>’e tıklamayı unutmayın.<br><br>14. Reklam Setinizin kurulumu tamamlandı.",
    "instruction": "",
    "_graphic": {
      "src": "course/en/images/images/step_14.png"
    }
  },
  {
    "_id": "c-525",
    "_parentId": "b-525",
    "_type": "component",
    "_component": "co-jump",
    "_classes": "color-test",
    "_preLinkBody": "Erişim ve Sıklık kampanyanızdaki aktif reklam setleri üzerinde değişiklik yapmak isteyeceğiniz zamanlar olabilir. Şimdi bunu nasıl yapacağınıza bakalım: ",
    "_linkBody": "Aktif Reklam Setlerinizi Düzenleme",
    "_postLinkBody": ".",
    "_link": "#/id/co-60",
    "_graphic": "adapt/css/assets/icon_nextPage.png",
    "_pageLevelProgress": {
      "_isEnabled": false
    }
  },
  {
    "_id": "c-550",
    "_parentId": "b-550",
    "_type": "component",
    "_component": "text",
    "_classes": "",
    "_layout": "full",
    "title": "",
    "displayTitle": "",
    "body": "Birkaç istisna dışında reklam setleriniz yayındayken bütçeyi, bitiş tarihini veya her ikisini birden düzenleyebilirsiniz.<br><br> Aşağıdaki durumlarda reklam setlerini düzenleyemezsiniz: <ul><li>Kampanya 24 saat içinde sona erecekse.</li><li>Bütçeyi zaten harcanmış olan tutarın altına düşürmek istiyorsanız.</li><li>Reklam setleri yeterince yayınlanmama riskiyle karşı karşıyaysa. Düzenleme yapmayı denediğinizde, reklamın beklenen performansı göstermemesi nedeniyle yayın üzerinde değişiklik yapılamayacağını belirten bir hata mesajı görürsünüz. Yine de değişiklik yapmak istiyorsanız, bu reklam setini silip veya kapatıp yeni bir reklam seti oluşturmanız gerekir.</ul> ",
    "instruction": "",
    "_pageLevelProgress": {
      "_isEnabled": false
    }
  },
  {
    "_id": "c-555",
    "_parentId": "b-555",
    "_type": "component",
    "_component": "graphic",
    "_classes": "",
    "_layout": "full",
    "title": "Bütçe ve bitiş tarihini düzenleme",
    "displayTitle": "Bütçe ve bitiş tarihini düzenleme",
    "body": "Aktif bir reklam setinin bütçesini veya bitiş tarihini düzenlemek için satın alma arayüzlerinde reklam seti düzeyine giderek “Düzenle” düğmesine tıklayın. <ul><li>Bütçe. Minimum bütçeyi göz önünde bulundurarak bütçenizi artırın veya azaltın.</li><li>Bitiş tarihi. Bitiş tarihini tüm kampanya süresince sadece genişletebilir ve en fazla 90 güne kadar uzatabilirsiniz. </li></ul><br><br>Bu düzenlemeleri yaptığınızda, sistem yeni bir tahmin üretir. Ardından yeni tahmini orijinal bütçe, erişim, CPM ve ortalama sıklık ile karşılaştırır. Yaptığınız değişikliklerden memnunsanız, Power Editor satın alma arayüzünde “Değişiklikleri Gözden Geçir”i seçin ve envanteri ayırtmak için yayınlayın.<br><br>Aşağıdaki ekran görüntüsü, plan düzenlenmeden önce önceki tahminlerle karşılaştırılan düzenlemelere dayalı olarak güncellenmiş tahminleri göstermektedir.",
    "instruction": "",
    "_pageLevelProgress": {
      "_isEnabled": true
    },
    "_graphic": {
      "alt": "alternatif metin",
      "src": "course/en/images/images/ch6newpredictions.png"
    }
  },
  {
    "_id": "c-560",
    "_parentId": "b-560",
    "_type": "component",
    "_component": "text",
    "_classes": "",
    "_layout": "full",
    "title": "Reklam setlerini durdurma",
    "displayTitle": "Reklam setlerini durdurma",
    "body": "Reklam setlerini herhangi bir nedenle planın ortasında durdurabilirsiniz. Reklam setinizi durdurup yeniden başlatmak için aşağıdaki adımları izleyin:<ol><li>Satın alma arayüzlerinde reklam seti düzeyine gidin ve durumu “durduruldu” olarak değiştirin.</li><li>“Değişiklikleri Gözden Geçir”i seçin ve ardından son halini vermek için yayınlayın.</li><li>Reklamlarınızı yeniden etkinleştirmek için durumu “Canlı” olarak değiştirin ve “Değişiklikleri Gözden Geçir” seçeneğine tıklayın.</li><li>Son halini vermek için “Uygula” seçeneğine tıklayın. </ol><br>Kampanyanızı rezerve ettiğiniz reklam seti üzerinde herhangi bir etkisi olmadan 30 dakikaya kadar durdurabileceğinizi unutmayın. Reklam setini yeniden başlattığınızda yayın planlandığı gibi devam eder.  ",
    "instruction": "",
    "_pageLevelProgress": {
      "_isEnabled": true
    }
  },
  {
    "_id": "c-590",
    "_parentId": "b-590",
    "_type": "component",
    "_component": "co-jump",
    "_classes": "color-test",
    "_preLinkBody": "Şimdilik bu kadar! Ancak ayrılmadan önce öğrendiklerinizi gözden geçirelim:  ",
    "_linkBody": "Bilgi Kontrolü",
    "_postLinkBody": ".",
    "_link": "#/id/co-70",
    "_graphic": "adapt/css/assets/icon_nextPage.png",
    "_pageLevelProgress": {
      "_isEnabled": false
    }
  },
  {
    "_id": "c-620",
    "_parentId": "b-620",
    "_type": "component",
    "_component": "mcq",
    "_classes": "",
    "_layout": "full",
    "_attempts": 1,
    "_shouldDisplayAttempts": false,
    "_setCompletionOn": "inview",
    "_questionWeight": 1,
    "_isRandom": false,
    "_selectable": 1,
    "title": "Soru 1/6",
    "displayTitle": "Soru 1/6",
    "body": "Erişim ve sıklık ücretlendirmesi hakkında aşağıdakilerden hangisi doğrudur?",
    "instruction": "",
    "_items": [{
        "text": "Erişim ve sıklığı kullanarak bir kampanya oluşturduğunuzda, rezervasyonunu yaptığınız reklam envanteri alanı için değişken bir ücret ödemeyi kabul edersiniz.",
        "_shouldBeSelected": false
      },
      {
        "text": "Ücret daima CPM (1.000 gösterim başına ücret) cinsindendir",
        "_shouldBeSelected": true
      },
      {
        "text": "Dönemsel farklılıklar ve reklam kalitesi gibi açık artırma dinamikleri tahmini ücretin değişiklik göstermesine asla neden olmaz.",
        "_shouldBeSelected": false
      },
      {
        "text": "Ücreti sabitlemek ve dalgalanmalardan kaçınmak istiyorsanız, yapabildiğiniz ilk anda envanterinizi satın almaktan vazgeçmenizi tavsiye ederiz.",
        "_shouldBeSelected": false
      }
    ],
    "_feedback": {
      "correct": "Doğru! Erişim ve sıklık kampanyalarının ücreti daima CPM (1.000 gösterim başına ücret) cinsindendir.",
      "_incorrect": {
        "notFinal": "Üzgünüz, yanlış cevap. Erişim ve sıklık kampanyalarının ücreti daima CPM (1.000 gösterim başına ücret) cinsindendir.",
        "final": "Üzgünüz, yanlış cevap. Erişim ve sıklık kampanyalarının ücreti daima CPM (1.000 gösterim başına ücret) cinsindendir."
      },
      "_partlyCorrect": {
        "notFinal": "",
        "final": "Üzgünüz, yanlış cevap. Erişim ve sıklık kampanyalarının ücreti daima CPM (1.000 gösterim başına ücret) cinsindendir."
      }
    },
    "_buttons": {
      "_submit": {
        "buttonText": "Gönder",
        "ariaLabel": "Cevabınızı göndermek için buraya tıklayın."
      },
      "_reset": {
        "buttonText": "Sıfırla",
        "ariaLabel": ""
      },
      "_showCorrectAnswer": {
        "buttonText": "Doğru Cevap",
        "ariaLabel": ""
      },
      "_hideCorrectAnswer": {
        "buttonText": "Benim Cevabım",
        "ariaLabel": ""
      },
      "_showFeedback": {
        "buttonText": "Geribildirimi göster",
        "ariaLabel": ""
      },
      "remainingAttemptsText": "deneme kaldı",
      "remainingAttemptText": "son deneme"
    },
    "_pageLevelProgress": {
      "_isEnabled": true
    }
  },
  {
    "_id": "c-640",
    "_parentId": "b-640",
    "_type": "component",
    "_component": "mcq",
    "_classes": "",
    "_layout": "full",
    "_attempts": 1,
    "_shouldDisplayAttempts": false,
    "_setCompletionOn": "inview",
    "_questionWeight": 1,
    "_isRandom": false,
    "_selectable": 1,
    "title": "Soru 2/6",
    "displayTitle": "Soru 2/6",
    "body": "Facebook ve Instagram’ın erişim ve sıklık reklam çözümünü eşsiz kılan nokta nedir?",
    "instruction": "",
    "_items": [{
        "text": "Daha önce hiçbir medya reklamverenlere erişim ve sıklık kullanma fırsatını sunmamıştı.",
        "_shouldBeSelected": false
      },
      {
        "text": "Reklamverenler insanlara erişmek için kişisel bilgilerine erişebilirler.",
        "_shouldBeSelected": false
      },
      {
        "text": "Facebook, insanlara dayalı hedefleme sayesinde tahmin edilebilir ve kontrol edilebilir bağlantıya olanak tanır.",
        "_shouldBeSelected": true
      },
      {
        "text": "Televizyon reklamverenleri yayınladıkları reklamların sıklığı üzerinde kontrol sahibi değildir.",
        "_shouldBeSelected": false
      }
    ],
    "_feedback": {
      "correct": "Doğru! Facebook ve Instagram’ın erişim ve sıklık reklam çözümü, insanlara dayalı hedefleme sayesinde tahmin edilebilir ve kontrol edilebilir bağlantıya olanak tanıdığı için eşsizdir.",
      "_incorrect": {
        "notFinal": "Üzgünüz, yanlış cevap. Facebook ve Instagram’ın erişim ve sıklık reklam çözümü, insanlara dayalı hedefleme sayesinde tahmin edilebilir ve kontrol edilebilir bağlantıya olanak tanıdığı için eşsizdir.",
        "final": "Üzgünüz, yanlış cevap. Facebook ve Instagram’ın erişim ve sıklık reklam çözümü, insanlara dayalı hedefleme sayesinde tahmin edilebilir ve kontrol edilebilir bağlantıya olanak tanıdığı için eşsizdir."
      },
      "_partlyCorrect": {
        "notFinal": "",
        "final": "Kısmen Doğru"
      }
    },
    "_buttons": {
      "_submit": {
        "buttonText": "Gönder",
        "ariaLabel": "Cevabınızı göndermek için buraya tıklayın."
      },
      "_reset": {
        "buttonText": "Sıfırla",
        "ariaLabel": ""
      },
      "_showCorrectAnswer": {
        "buttonText": "Doğru Cevap",
        "ariaLabel": ""
      },
      "_hideCorrectAnswer": {
        "buttonText": "Benim Cevabım",
        "ariaLabel": ""
      },
      "_showFeedback": {
        "buttonText": "Geribildirimi göster",
        "ariaLabel": ""
      },
      "remainingAttemptsText": "deneme kaldı",
      "remainingAttemptText": "son deneme"
    },
    "_pageLevelProgress": {
      "_isEnabled": true
    }
  },
  {
    "_id": "c-660",
    "_parentId": "b-660",
    "_type": "component",
    "_component": "mcq",
    "_classes": "",
    "_layout": "full",
    "_attempts": 1,
    "_shouldDisplayAttempts": false,
    "_setCompletionOn": "inview",
    "_questionWeight": 1,
    "_isRandom": false,
    "_selectable": 1,
    "title": "Soru 3/6",
    "displayTitle": "Soru 3/6",
    "body": "Aşağıdakileri yapmak istiyorsanız, erişim ve sıklık satın alma en iyi çözümdür:",
    "instruction": "",
    "_items": [{
        "text": "Marka bilinirliğini artırmak",
        "_shouldBeSelected": true
      },
      {
        "text": "Bir ürün kataloğunun tanıtımını yapmak",
        "_shouldBeSelected": false
      },
      {
        "text": "İşletmenizin yakınındaki insanlara erişmek",
        "_shouldBeSelected": false
      },
      {
        "text": "Etkinliğinize katılımı artırmak",
        "_shouldBeSelected": false
      }
    ],
    "_feedback": {
      "correct": "Doğru! Erişim ve sıklık satın alma, marka bilinirliğini artırmak isteyenler için en iyi çözümdür.",
      "_incorrect": {
        "notFinal": "",
        "final": "Üzgünüz, yanlış cevap. Erişim ve sıklık satın alma, marka bilinirliğini artırmak isteyenler için en iyi çözümdür."
      },
      "_partlyCorrect": {
        "notFinal": "",
        "final": "Üzgünüz, yanlış cevap.  Erişim ve sıklık satın alma, marka bilinirliğini artırmak isteyenler için en iyi çözümdür."
      }
    },
    "_buttons": {
      "_submit": {
        "buttonText": "Gönder",
        "ariaLabel": "Cevabınızı göndermek için buraya tıklayın."
      },
      "_reset": {
        "buttonText": "Sıfırla",
        "ariaLabel": ""
      },
      "_showCorrectAnswer": {
        "buttonText": "Doğru Cevap",
        "ariaLabel": ""
      },
      "_hideCorrectAnswer": {
        "buttonText": "Benim Cevabım",
        "ariaLabel": ""
      },
      "_showFeedback": {
        "buttonText": "Geribildirimi göster",
        "ariaLabel": ""
      },
      "remainingAttemptsText": "deneme kaldı",
      "remainingAttemptText": "son deneme"
    },
    "_pageLevelProgress": {
      "_isEnabled": true
    }
  },
  {
    "_id": "c-680",
    "_parentId": "b-680",
    "_type": "component",
    "_component": "mcq",
    "_classes": "",
    "_layout": "full",
    "_attempts": 1,
    "_shouldDisplayAttempts": false,
    "_setCompletionOn": "inview",
    "_questionWeight": 1,
    "_isRandom": false,
    "_selectable": 1,
    "title": "Soru 4/6",
    "displayTitle": "Soru 4/6",
    "body": "Bir erişim ve sıklık kampanyasına ait Plan, Hedef Kitle ve Reklam Alanları, satın alma arayüzlerimizin hangi düzeyinde düzenlenebilir?",
    "instruction": "",
    "_items": [{
        "text": "Kampanya düzeyi",
        "_shouldBeSelected": false
      },
      {
        "text": "Reklam Seti düzeyi",
        "_shouldBeSelected": true
      },
      {
        "text": "Reklam düzeyi",
        "_shouldBeSelected": false
      },
      {
        "text": "Sayfa düzeyi",
        "_shouldBeSelected": false
      }
    ],
    "_feedback": {
      "correct": "Doğru! Bir erişim ve sıklık kampanyasına ait Plan, Hedef Kitle ve Reklam Alanları, satın alma arayüzlerimizde Reklam Seti düzeyinde düzenlenebilir.",
      "_incorrect": {
        "notFinal": "",
        "final": "Üzgünüz, yanlış cevap. Bir erişim ve sıklık kampanyasına ait Plan, Hedef Kitle ve Reklam Alanları, satın alma arayüzlerimizde Reklam Seti düzeyinde düzenlenebilir. "
      },
      "_partlyCorrect": {
        "notFinal": "",
        "final": "Kısmen Doğru"
      }
    },
    "_buttons": {
      "_submit": {
        "buttonText": "Gönder",
        "ariaLabel": "Cevabınızı göndermek için buraya tıklayın."
      },
      "_reset": {
        "buttonText": "Sıfırla",
        "ariaLabel": ""
      },
      "_showCorrectAnswer": {
        "buttonText": "Doğru Cevap",
        "ariaLabel": ""
      },
      "_hideCorrectAnswer": {
        "buttonText": "Benim Cevabım",
        "ariaLabel": ""
      },
      "_showFeedback": {
        "buttonText": "Geribildirimi göster",
        "ariaLabel": ""
      },
      "remainingAttemptsText": "deneme kaldı",
      "remainingAttemptText": "son deneme"
    },
    "_pageLevelProgress": {
      "_isEnabled": true
    }
  },
  {
    "_id": "c-700",
    "_parentId": "b-700",
    "_type": "component",
    "_component": "mcq",
    "_classes": "",
    "_layout": "full",
    "_attempts": 1,
    "_shouldDisplayAttempts": false,
    "_setCompletionOn": "inview",
    "_questionWeight": 1,
    "_isRandom": false,
    "_selectable": 1,
    "title": "Soru 5/6",
    "displayTitle": "Soru 5/6",
    "body": "Bir erişim ve sıklık kampanyası ne kadar süreyle yayınlanabilir?",
    "instruction": "",
    "_items": [{
        "text": "Bir yıla kadar her süreyle",
        "_shouldBeSelected": false
      },
      {
        "text": "1 ila 90 gün süreyle",
        "_shouldBeSelected": true
      },
      {
        "text": "3 ila 60 gün süreyle",
        "_shouldBeSelected": false
      },
      {
        "text": "Süresiz olarak",
        "_shouldBeSelected": false
      },
      {
        "text": "İki hafta",
        "_shouldBeSelected": false
      }
    ],
    "_feedback": {
      "correct": "Doğru! Bir erişim ve sıklık kampanyası 1 ila 90 gün süreyle yayınlanabilir.",
      "_incorrect": {
        "notFinal": "",
        "final": "Üzgünüz, yanlış cevap. Bir erişim ve sıklık kampanyası 1 ila 90 gün süreyle yayınlanabilir."
      },
      "_partlyCorrect": {
        "notFinal": "",
        "final": "Kısmen Doğru"
      }
    },
    "_buttons": {
      "_submit": {
        "buttonText": "Gönder",
        "ariaLabel": "Cevabınızı göndermek için buraya tıklayın."
      },
      "_reset": {
        "buttonText": "Sıfırla",
        "ariaLabel": ""
      },
      "_showCorrectAnswer": {
        "buttonText": "Doğru Cevap",
        "ariaLabel": ""
      },
      "_hideCorrectAnswer": {
        "buttonText": "Benim Cevabım",
        "ariaLabel": ""
      },
      "_showFeedback": {
        "buttonText": "Geribildirimi göster",
        "ariaLabel": ""
      },
      "remainingAttemptsText": "deneme kaldı",
      "remainingAttemptText": "son deneme"
    },
    "_pageLevelProgress": {
      "_isEnabled": true
    }
  },
  {
    "_id": "c-720",
    "_parentId": "b-720",
    "_type": "component",
    "_component": "mcq",
    "_classes": "",
    "_layout": "full",
    "_attempts": 1,
    "_shouldDisplayAttempts": false,
    "_setCompletionOn": "inview",
    "_questionWeight": 1,
    "_isRandom": false,
    "_selectable": 1,
    "title": "Soru 6/6",
    "displayTitle": "Soru 6/6",
    "body": "Erişim ve sıklık yayını hakkında aşağıdakilerden hangisi doğrudur?",
    "instruction": "",
    "_items": [{
        "text": "Kampanya başına minimum 100.000 kişiye erişmeniz gerekir.",
        "_shouldBeSelected": false
      },
      {
        "text": "Reklamları Facebook ve Instagram Akışlarında yayınlayabilirsiniz.",
        "_shouldBeSelected": true
      },
      {
        "text": "Kampanyanızın başlamasına bir haftadan daha az bir süre kaldıysa, kampanyanızı iptal edemez veya değişiklik talebinde bulunamazsınız.",
        "_shouldBeSelected": false
      },
      {
        "text": "Planlanan sıklık bir sınır değil, garanti niteliğindedir.",
        "_shouldBeSelected": false
      }
    ],
    "_feedback": {
      "correct": "Doğru! Reklamları Facebook ve Instagram Akışlarında yayınlayabilirsiniz.",
      "_incorrect": {
        "notFinal": "",
        "final": "Üzgünüz, yanlış cevap. Reklamları Facebook ve Instagram Akışlarında yayınlayabilirsiniz."
      },
      "_partlyCorrect": {
        "notFinal": "",
        "final": "Reklamları Facebook ve Instagram Akışlarında yayınlayabilirsiniz."
      }
    },
    "_buttons": {
      "_submit": {
        "buttonText": "Gönder",
        "ariaLabel": "Cevabınızı göndermek için buraya tıklayın."
      },
      "_reset": {
        "buttonText": "Sıfırla",
        "ariaLabel": ""
      },
      "_showCorrectAnswer": {
        "buttonText": "Doğru Cevap",
        "ariaLabel": ""
      },
      "_hideCorrectAnswer": {
        "buttonText": "Benim Cevabım",
        "ariaLabel": ""
      },
      "_showFeedback": {
        "buttonText": "Geribildirimi göster",
        "ariaLabel": ""
      },
      "remainingAttemptsText": "deneme kaldı",
      "remainingAttemptText": "son deneme"
    },
    "_pageLevelProgress": {
      "_isEnabled": true
    }
  },
  {
    "_id": "c-740",
    "_parentId": "b-740",
    "_type": "component",
    "_component": "co-jump",
    "_classes": "color-test",
    "_autoComplete": true,
    "_preLinkBody": "Bu kursu bitirmek için aşağıdaki düğmeye tıklayın. Not: Tüm modüller için durum çubuklarının tamamlandığından emin olmak için <a href='#'>buraya tıklayın</a>.<br>",
    "_linkBody": "<div style = 'text-align:center;padding:8px;'><button class='buttons-action'><b>BU KURSU BİTİRDİM</b></button></div><br> ",
    "_postLinkBody": "",
    "_link": "",
    "_pageLevelProgress": {
      "_isEnabled": false
    }
  }
]
